rank;type;title
1;ang;Naruto
1;jap;NARUTO―ナルト―
2;ang;Attack on Titan
2;jap;進撃の巨人
3;ang;One Piece
3;jap;ONE PIECE
4;ang;Berserk
4;syn;Berserk: The Prototype
4;jap;ベルセルク
5;ang;Tokyo Ghoul
5;syn;Toukyou Kushu
5;jap;東京喰種トーキョーグール
6;ang;Bleach
6;jap;BLEACH
7;ang;Death Note
7;jap;DEATH NOTE
8;ang;Fairy Tail
8;jap;FAIRY TAIL
9;ang;One-Punch Man
9;syn;Onepunchman
9;syn;Onepanman
9;jap;ワンパンマン
10;ang;My Hero Academia
10;jap;僕のヒーローアカデミア
11;ang;Fullmetal Alchemist
11;syn;Full Metal Alchemist
11;syn;Hagane no Renkinjutsushi
11;syn;FMA
11;syn;HagaRen
11;syn;Fullmetal Alchemist Gaiden
11;jap;鋼の錬金術師
12;ang;A Silent Voice
12;syn;The Shape of Voice
12;jap;聲の形
13;ang;Horimiya
13;jap;ホリミヤ
14;ang;Goodnight Punpun
14;jap;おやすみプンプン
15;ang;Tokyo Ghoul:re
15;syn;Tokyo Kushu:re
15;syn;Toukyou Kuushu:re
15;syn;Tokyo Ghoul: "Joker"
15;jap;東京喰種-トーキョーグール-:re
16;ang;Deadman Wonderland
16;jap;デッドマン・ワンダーランド
17;ang;Food Wars: Shokugeki no Soma
17;syn;Kimi to Watashi no Renai Soudan
17;syn;Our Love Counseling
17;jap;食戟のソーマ
18;ang;Nisekoi: False Love
18;jap;ニセコイ
19;ang;Gantz
19;syn;Gantz/Osaka
19;jap;GANTZ
20;ang;Hunter x Hunter
20;syn;HxH
20;jap;HUNTER×HUNTER
21;ang;Soul Eater
21;jap;SOUL EATER
22;ang;Bakuman。
22;jap;BAKUMAN。 バクマン。
23;ang;Akame ga Kill!
23;syn;Akame ga Kiru!
23;jap;アカメが斬る！
24;ang;D.Gray-man
24;syn;D.Grey-man
24;syn;D. Grayman
24;syn;D. Gray-man
24;jap;D.Gray-man
25;ang;Black Butler
25;syn;Dark Butler
25;syn;Kuro Shitsuji
25;jap;黒執事
26;ang;Blue Exorcist
26;syn;Ao no Futsumashi
26;syn;The Blue Magic Exorcist
26;jap;青の祓魔師〈エクソシスト〉
27;ang;Maid-sama!
27;syn;Class President Is a Maid!
27;syn;Toumei na Sekai
27;syn;Transparent World
27;jap;会長はメイド様！
28;ang;Vagabond
28;jap;バガボンド
29;ang;Claymore
29;jap;CLAYMORE [クレイモア]
30;ang;Pandora Hearts
30;jap;PandoraHearts
31;ang;The Seven Deadly Sins
31;jap;七つの大罪
32;ang;Ao Haru Ride
32;syn;Blue Spring Ride
32;syn;Aoharaido
32;syn;Strobe Edge
32;syn;Sono Omokage wo Shitteru
32;jap;アオハライド AO―HARU―RIDE
33;ang;Noragami: Stray God
33;syn;Stray Gods
33;jap;ノラガミ
34;ang;Fruits Basket
34;syn;FuruBa
34;jap;フルーツバスケット
35;ang;orange
35;syn;Haru-iro Astronaut
35;syn;Spring-Colored Astronaut
35;syn;orange: Mirai
35;syn;orange: future
35;jap;orange
36;ang;Reborn!
36;syn;Kateikyoushi Hitman Reborn!
36;syn;Home Tutor Hitman Reborn!
36;syn;Minna no Sasai na Nichijou
36;syn;Kaibutsu-Zukai Tsuna!
36;jap;家庭教師ヒットマンREBORN!
37;ang;Dengeki Daisy
37;syn;Hetakuso Cupid
37;syn;The Hopeless Cupid
37;jap;電撃デイジー
38;jap;브레이커
39;ang;The Promised Neverland
39;jap;約束のネバーランド
40;ang;Assassination Classroom
40;syn;Tokyo Department Sensou Taikenki
40;syn;Tokyo Department Store War Chronicles
40;jap;暗殺教室
41;ang;Magi: The Labyrinth of Magic
41;jap;マギ
42;syn;Beelzebub Bangai-hen
42;jap;べるぜバブ
43;ang;20th Century Boys
43;syn;20 Seiki Shounen
43;syn;Nijuu Seiki Shounen
43;syn;Nijuusseiki Shounen
43;syn;20thCB
43;jap;20世紀少年
44;ang;Ouran High School Host Club
44;syn;OHSHC
44;syn;Romantic Egoist
44;jap;桜蘭高校ホスト部
45;ang;Yotsuba&!
45;syn;Yotsuba and!
45;jap;よつばと!
46;ang;Dragon Ball
46;syn;Dragonball
46;syn;Dragon Ball Z
46;syn;Dragonball Z
46;jap;ドラゴンボール
47;ang;ReLIFE
47;jap;ReLIFE
48;syn;KamiNomi
48;syn;Kami nomizo Shiru Sekai
48;syn;The World God Only Knows
48;syn;TWGOK
48;jap;神のみぞ知るセカイ
49;ang;Monster
49;jap;MONSTER
50;ang;Prison School
50;syn;Kangoku Gakuen
50;jap;監獄学園〈プリズンスクール〉
51;ang;Future Diary
51;jap;未来日記
52;syn;Masturbation Master Kurosawa
52;jap;オナニーマスター黒沢
53;ang;Vampire Knight
53;syn;Watashi to Fukigen na Panya-san
53;syn;The Sour-Faced Baker and Me
53;syn;The Sullen Baker and Me
53;jap;ヴァンパイア騎士〈ナイト〉
54;ang;Uzumaki: Spiral into Horror
54;syn;The Spiral
54;jap;うずまき
55;ang;Yamada-kun and the Seven Witches
55;syn;Yamada-kun to Nananin no Majo
55;syn;7 Witches
55;syn;Maou no Kyoushitsu
55;syn;The Devil's Classroom
55;jap;山田くんと7人の魔女
56;ang;Vinland Saga
56;jap;ヴィンランド・サガ
57;syn;Watashi-tachi no Shiawase na Jikan
57;syn;Our Happy Hours
57;syn;Our Happy Time
57;jap;私たちの幸せな時間
58;ang;GTO: Great Teacher Onizuka
58;syn;GTO: Tomoko's Big Adventures
58;jap;GTO
59;ang;Kimi ni Todoke: From Me to You
59;syn;Reaching You
59;syn;Mayuge no Kakudo wa 45° de
59;syn;45 Degree Eyebrows
59;syn;45° Eyebrows
59;jap;君に届け
60;syn;Elven Song
60;syn;Elfenlied
60;syn;MOL
60;syn;Digitopolis
60;syn;memoria
60;jap;エルフェンリート
61;ang;The Empty Box and Zeroth Maria
61;syn;HakoMari
61;jap;空ろの箱と零のマリア
62;ang;The Rising of the Shield Hero: The Manga Companion
62;jap;盾の勇者の成り上がり
63;ang;Rosario+Vampire
63;syn;Rosario and Vampire
63;jap;ロザリオとバンパイア
64;ang;Skip Beat!
64;jap;スキップ・ビート！
65;ang;My Little Monster
65;syn;Tonari no Kaibutsukun
65;syn;The Monster Next Door
65;syn;My Neighbor Monster-kun
65;jap;となりの怪物くん
66;ang;Haikyu!!
66;syn;High Kyuu!!
66;syn;HQ!!
66;syn;Nisekyuu!!
66;jap;ハイキュー!!
67;syn;Kimi to
67;syn;Shiawase.
67;syn;Hidamari no Niwa
67;syn;Wasureyuki
67;syn;Ninkoi
67;jap;ラストゲーム
68;ang;All You Need Is Kill
68;syn;Edge of Tomorrow
68;jap;All You Need Is Kill
69;syn;The Breaker 2
69;syn;The Breaker: NW
69;syn;The Breaker: Part 2
69;syn;The Breaker: Martial Arts City
69;jap;브레이커NW
70;ang;Highschool of the Dead
70;syn;Gakuen Mokushiroku
70;syn;HOTD
70;jap;学園黙示録 HIGHSCHOOL OF THE DEAD
71;jap;LIAR GAME
72;ang;The Flowers of Evil
72;syn;Blossom of Evil
72;jap;惡の華
73;ang;Air Gear
73;syn;AirGear
73;syn;Air Gear Unlimited
73;jap;エア・ギア
74;ang;Psyren
74;syn;Siren
74;jap;PSYЯEN -サイレン-
75;ang;The Daytime Shooting Star
75;syn;Hirunaka no Ryusei
75;syn;Cookie Girl Cream Boy
75;syn;Tsuyu Kaoru
75;syn;A Love Story in Moist Rainy Days
75;syn;Heroine no Ryuusei
75;syn;More than Words
75;jap;ひるなかの流星
76;ang;Doubt
76;jap;Doubt
77;ang;Rurouni Kenshin: Meiji Swordsman Romantic Story
77;syn;Samurai X
77;syn;Sengoku no Mikazuki
77;syn;Crescent Moon in the Warring States
77;syn;Crescent Moon Over a Country At War
77;syn;Meteor Strike
77;jap;るろうに剣心 -明治剣客浪漫譚-
78;ang;Noblesse
78;jap;노블레스
79;ang;Yona of the Dawn
79;syn;Yona: The Girl Standing in the Blush of Dawn
79;jap;暁のヨナ
80;ang;Tsubasa: RESERVoir CHRoNiCLE
80;syn;TRC
80;jap;ツバサ -RESERVoir CHRoNiCLE-
81;ang;House of the Sun
81;jap;たいようのいえ
82;ang;Negima! Magister Negi Magi
82;syn;Magical Teacher Negima!
82;jap;魔法先生ネギま!
83;ang;Blame!
83;jap;BLAME!
84;ang;Kaguya-sama: Love is War
84;syn;Kaguya Wants to be Confessed To: The Geniuses' War of Love and Brains
84;jap;かぐや様は告らせたい～天才たちの恋愛頭脳戦～
85;ang;Parasyte
85;syn;Parasite
85;syn;Parasitic Beasts
85;jap;寄生獣
86;ang;Black Clover
86;jap;ブラッククローバー
87;syn;JoJo's Bizarre Adventure Part 7: Steel Ball Run
87;syn;SBR
87;jap;ジョジョの奇妙な冒険 Part7 STEEL BALL RUN
88;ang;Hellsing
88;syn;Hellsing Cross Fire
88;syn;Crossfire
88;jap;ヘルシング
89;ang;Sankarea: Undying Love
89;syn;Shiromabito
89;jap;さんかれあ
90;ang;Ajin: Demi-Human
90;jap;亜人
91;ang;Gin Tama
91;syn;Dandelion
91;syn;Shiro Kuro
91;syn;Black and White
91;syn;Shirokuro
91;syn;13
91;syn;Thirteen
91;syn;Bankara-san ga Tooru
91;syn;Here Comes Mr. Uncivilised
91;syn;Silver Soul
91;jap;銀魂
92;ang;Kuroko's Basketball
92;syn;Kuroko no Basuke
92;syn;The Basketball Which Kuroko Plays
92;jap;黒子のバスケ
93;syn;A Peephole
93;jap;ノ・ゾ・キ・ア・ナ
94;ang;xxxHOLiC
94;syn;xxxHolic Rou
94;syn;xxxHolic Cage
94;jap;xxxHOLiC
95;ang;The Ancient Magus' Bride
95;syn;The Magician's Bride
95;jap;魔法使いの嫁
96;ang;Tomo-chan Is a Girl!
96;jap;トモちゃんは女の子!
97;ang;Nana
97;jap;NANA
98;ang;Akira
98;jap;AKIRA
99;ang;Grand Blue Dreaming
99;jap;ぐらんぶる
100;syn;Komi-san wa
100;syn;Communication Shougai desu.
100;jap;古見さんは、コミュ症です。
101;ang;Btooom!
101;jap;BTOOOM!
102;ang;Kamisama Kiss
102;syn;Divine Nanami
102;jap;神様はじめました
103;ang;A Town Where You Live
103;syn;Yuna
103;syn;Suzuka 2
103;jap;君のいる町
104;syn;Le Bizzarre Avventure Di GioGio Parte 5: Vento Aureo
104;syn;JoJo's Bizarre Adventure Part 5: Golden Wind
104;syn;Vento Aureo
104;syn;Dai 5 Bu Giorno Giovana: Ougon naru Isan
104;jap;ジョジョの奇妙な冒険 黄金の風
105;ang;Slam Dunk
105;jap;SLAM DUNK
106;ang;Say I Love You.
106;syn;Sukitte Ii na yo.
106;jap;好きっていいなよ。
107;ang;Neon Genesis Evangelion
107;syn;Shinseiki Evangelion
107;jap;新世紀エヴァンゲリオン
108;ang;Monster Musume: Everyday Life With Monster Girls
108;syn;Everyday That There Is a Monster Girl
108;syn;MonMusu
108;jap;モンスター娘のいる日常
109;ang;JoJo's Bizarre Adventure Part 1: Phantom Blood
109;syn;Dai Ichi Bu Jonathan Joestar: Sono Seishun
109;jap;ジョジョの奇妙な冒険 ファントムブラッド
110;ang;Made in Abyss
110;jap;メイドインアビス
111;ang;ERASED
111;syn;The Town Where Only I am Missing
111;syn;BokuMachi
111;jap;僕だけがいない街
112;ang;Seraph of the End: Vampire Reign
112;jap;終わりのセラフ
113;ang;Chobits
113;jap;ちょびっツ
114;jap;キングダム
115;syn;History's Strongest Disciple Kenichi
115;syn;Kenichi: The Mightiest Disciple
115;jap;史上最強の弟子ケンイチ
116;ang;Love Hina
116;jap;ラブひな
117;syn;JoJo's Bizarre Adventure Part 6: Stone Ocean
117;jap;ジョジョの奇妙な冒険 ストーンオーシャン
118;ang;Cage of Eden
118;jap;エデンの檻
119;syn;Shoujo the Wild's
119;jap;소녀 더 와일즈
120;ang;Beast Master
120;syn;Fly
120;syn;Cactus Summer Surprise
120;syn;Saboten Summer Surprise
120;jap;ビーストマスター
121;ang;High School Debut
121;syn;Osananajimi wa Gakunenchou
121;syn;Enren Debut
121;syn;Koukou Debut Enrenhen
121;jap;高校デビュー
122;ang;Missions of Love
122;syn;Do xx to Me!
122;syn;x Shina
122;syn;Plain Love
122;jap;わたしに××しなさい！
123;ang;Solanin
123;jap;ソラニン
124;ang;Citrus
124;jap;citrus
125;ang;Masamune-kun's Revenge
125;jap;政宗くんのリベンジ
126;syn;Daily Butterfly
126;jap;日々蝶々
127;ang;Rosario+Vampire: Season II
127;syn;Rosario and Vampire: Season 2
127;jap;ロザリオとバンパイア SeasonⅡ
128;ang;Battle Royale
128;jap;バトル・ロワイアル
129;ang;To Love Ru
129;syn;To LOVE-Ru Trouble
129;syn;To-Love-Ru
129;syn;To Love You
129;syn;To Love You - Trouble
129;syn;Toraburu
129;syn;ToLoveRu
129;jap;To LOVEる -とらぶる-
130;ang;I Am a Hero
130;jap;アイアムアヒーロー
131;ang;Strobe Edge
131;syn;Colorless Dreamer
131;jap;ストロボ・エッジ
132;ang;Shaman King
132;syn;Exotica
132;syn;Funbari no Uta
132;syn;The Poem of Funbari
132;syn;The Song of Funbari
132;jap;シャーマンキング
133;ang;Monthly Girls' Nozaki-kun
133;jap;月刊少女野崎くん
134;ang;JoJo's Bizarre Adventure Part 4: Diamond Is Unbreakable
134;syn;Diamond Is Not Crash
134;syn;Dai 4 Bu: Higashikata Jousuke
134;jap;ジョジョの奇妙な冒険 ダイヤモンドは砕けない
135;ang;Goblin Slayer
135;jap;ゴブリンスレイヤー
136;ang;Blood Lad
136;jap;ブラッドラッド
138;ang;Pluto: Urusawa x Tezuka
138;jap;PLUTO
140;jap;聲の形
141;ang;InuYasha
141;syn;Inu-Yasha
141;syn;Inu Yasha
141;jap;犬夜叉
142;syn;Good Loser Kumagawa
142;jap;めだかボックス
143;ang;One Hundred Mob Psycho
143;jap;モブサイコ100
145;ang;Cardcaptor Sakura
145;syn;Cardcaptor Sakura: Master of the Clow
145;syn;CCS
145;jap;カードキャプターさくら
146;ang;Your Lie in April
146;jap;四月は君の嘘
147;ang;JoJo's Bizarre Adventure Part 2: Battle Tendency
147;syn;Dai Ni Bu Joseph Joestar: Sono Hokoritakaki Kettou
147;jap;ジョジョの奇妙な冒険 戦闘潮流
149;ang;Sword Art Online
149;syn;S.A.O
149;syn;SAO
149;jap;ソードアート・オンライン
150;ang;Battle Angel Alita
150;syn;Ganmu
150;jap;銃夢 GUNNM
151;syn;Minamoto's Story
151;jap;源君物語
152;ang;JoJo's Bizarre Adventure Part 3: Stardust Crusaders
152;syn;Kuujou Joutarou: Mirai e no Isan
152;jap;ジョジョの奇妙な冒険 スターダストクルセイダース
153;jap;LOVE SO LIFE
154;jap;ひよ恋
157;ang;Love★Com
157;syn;Love Com Plus
157;syn;Lovely Complex Plus
157;jap;ラブ★コン
158;ang;Domestic Girlfriend
158;syn;Dome x Kano
158;jap;ドメスティックな彼女
159;syn;The Fighting!
159;syn;Fighting Spirit
159;syn;The Fighting! Ippo
159;syn;Hajime no Ippo Gaiden: Naniwa Tiger
159;jap;はじめの一歩
160;ang;Velvet Kiss
160;jap;ベルベット・キス
161;ang;Naruto: The Seventh Hokage and the Scarlet Spring
161;syn;Naruto Side Story: The Seventh Hokage and the Scarlet Spring Month
161;jap;NARUTO外伝 七代目火影と緋色の花つ月
162;ang;Wolf Girl & Black Prince
162;syn;Junketsu Lullaby
162;syn;Pierrot ja Nee yo
162;syn;Kamatte-chan de Gomenasai!!
162;syn;Kimi wo Suki ni Natta Riyuu
162;syn;The Reason I Love You
162;jap;オオカミ少女と黒王子
163;syn;Today
163;syn;We'll Start Our Love
163;jap;今日、恋をはじめます
164;ang;Seven Days
164;syn;Seven Days - Monday to Thursday
164;syn;Seven Days - Friday to Sunday
164;jap;セブンデイズ
165;ang;Black Bird
165;jap;ブラックバード
166;ang;Annarasumanara
166;jap;안나라수마나라
168;ang;Wotakoi: Love Is Hard for Otaku
168;syn;It's Difficult to Love an Otaku
168;jap;ヲタクに恋は難しい
169;ang;Ubel Blatt
169;syn;Evil Blade
169;jap;Übel Blatt ～ユーベルブラット～
171;jap;ビターバージン
172;ang;Spice & Wolf
172;syn;Okami to Koshinryo
172;syn;Spice and Wolf
172;jap;狼と香辛料
173;ang;Rave Master
173;syn;Rave: The Groove Adventure
173;jap;RAVE
174;ang;Fairy Tail Zero
174;syn;Fairy Tail Gaiden
174;jap;FAIRY TAIL ZERØ
175;syn;Namaiki Zakari.
175;jap;なまいきざかり。
176;ang;No Matter How I Look at It, It's You Guys' Fault I'm Not Popular!
176;syn;WataMote
176;syn;Watashi ga Motenai no wa Dou Kangaete mo Omaera ga Warui!
176;syn;It's Not My Fault That I'm Not Popular!
176;jap;私がモテないのはどう考えてもお前らが悪い!
177;ang;Suzuka
177;syn;Love Mate
177;syn;Suzukaze
177;jap;涼風
178;ang;Another
178;jap;Another
179;ang;Welcome to the N.H.K.
179;syn;Welcome to the NHK!
179;jap;NHKにようこそ!
180;ang;Case Closed
180;syn;Meitantei Conan
180;syn;Detective Conan Kaito Kid Special Collection
180;jap;名探偵 コナン
181;ang;Lucifer and the Biscuit Hammer
181;syn;Wakusei no Samidare
181;syn;Lucifer and Biscuit Hammer
181;syn;Lucifer BH
181;jap;惑星のさみだれ
182;ang;Yu Yu Hakusho
182;syn;Yuu Yuu Hakusho
182;syn;YuYu Hakusho
182;syn;Two Shots
182;jap;幽☆遊☆白書
183;jap;ホムンクルス
184;ang;Blade of the Immortal
184;syn;Mugen no Juunin
184;syn;Inhabitant of Infinity
184;jap;無限の住人
187;ang;Gangsta.
187;jap;GANGSTA.
188;syn;Jojorion
188;syn;JoJo's Bizarre Adventure Part 8: Jojolion
188;jap;ジョジョの奇妙な冒険 Part8 ジョジョリオン
190;ang;Yankee-kun to Megane-chan
190;syn;Mr. Delinquent and Miss Glasses
190;syn;Yankii-kun to Megane-chan
190;syn;The Yankee Boy and Glasses Girl
190;syn;Flunk Punk Rumble
190;syn;Yanmega
190;syn;Fairy Megane
190;jap;ヤンキー君とメガネちゃん
191;ang;Teasing Master Takagi-san
191;syn;Skilled Teaser Takagi-san
191;jap;からかい上手の高木さん
193;ang;Black Cat
193;syn;Stray Cat
193;jap;BLACK CAT
194;ang;UQ Holder!
194;syn;Yuukyuu Holder
194;syn;Eternal Holder
194;syn;UQ Holder!: Mahou Sensei Negima! 2
194;jap;UQ HOLDER!
195;syn;Flower With Devil
195;syn;Flower and Devil
195;jap;花と悪魔
196;ang;My Youth Romantic Comedy Is Wrong, As I Expected
196;syn;Oregairu
196;syn;My Teen Romantic Comedy SNAFU
196;jap;やはり俺の青春ラブコメはまちがっている。
197;ang;21st Century Boys
197;syn;21stCB
197;syn;21 Seiki Shounen
197;jap;21世紀少年
198;ang;No Game No Life
198;syn;NGNL
198;jap;ノーゲーム・ノーライフ
199;ang;Freezing
199;syn;Freezing Second Season
199;jap;フリージング
200;ang;CØDE:BREAKER
200;syn;C0de:Breaker
200;jap;CØDE:BREAKER コード:ブレイカー
201;ang;The Quintessential Quintuplets
201;syn;Gotoubun no Hanayome
201;syn;The Five Wedded Brides
201;jap;五等分の花嫁
202;ang;BECK: Mongolian Chop Squad
202;jap;BECK
203;syn;Nana and Kaoru
203;syn;NanaKao
203;jap;ナナとカオル
204;ang;A Girl on the Shore
204;syn;Umibe no Onna-no-Ko
204;syn;The Girl of the Beach
204;syn;A Girl by the Sea
204;jap;うみべの女の子
205;ang;We Were There
205;syn;Run Baby
205;syn;Run.
205;jap;僕等がいた
206;syn;Yokohama Shopping Log
206;syn;Yokohama Shopping Trip
206;syn;Touge
206;jap;ヨコハマ買い出し紀行
207;syn;Faster Than a Kiss
207;syn;Tsuki to Himawari
207;syn;Moon and Sunflower
207;jap;キスよりも早く
209;ang;Girl Friends
209;syn;Girlfriends
209;jap;GIRL FRIENDS
210;ang;Azumanga Daioh
210;jap;あずまんが大王
211;ang;Absolute Boyfriend
211;syn;I Won't Let You Become a Star!
211;syn;Ohoshisama ni wa Sasemasen!
211;syn;Aromatic Boy
211;syn;Shounen Aromatic
211;jap;絶対彼氏。
212;ang;Bunny Drop
212;syn;Usagi Drop: Bangaihen
212;jap;うさぎドロップ
213;ang;Ten Count
213;syn;10 Count
213;jap;テンカウント
214;ang;L♥DK
214;jap;L♥DK
216;syn;Legend of Angel
216;jap;エンジェル伝説
217;jap;アクメツ
220;syn;Lost Continent of the Sky
220;syn;Misplaced by Heaven
220;syn;Heaven's Lost Property
220;syn;Lost Property of the Sky
220;jap;そらのおとしもの
221;ang;S.A: Special A
221;syn;Mikansei Chorus
221;syn;Incomplete Chorus
221;syn;Shoku no Miyako
221;syn;Food Paradise
221;jap;S・A　スペシャル・エー
222;ang;Dr. Stone
222;jap;Dr.STONE
223;ang;Dawn of the Arcana
223;syn;Reicana
223;jap;黎明のアルカナ
224;ang;Strawberry 100%
224;jap;いちご100%
225;ang;Sailor Moon
225;syn;Pretty Soldier Sailor Moon
225;syn;Pretty Guardian Sailor Moon
225;jap;美少女戦士セーラームーン
226;ang;Love and Lies
226;jap;恋と嘘
229;ang;Defense Devil
229;syn;Defence Devil
229;jap;DEFENSE DEVIL
230;ang;Nura: Rise of the Yokai Clan
230;syn;Grandchild of Nurari Hyon
230;syn;The Grandson of Nurarihyon
230;jap;ぬらりひょんの孫
231;ang;Gyo: The Death-Stench Creeps
231;syn;The Sad Tale of the Principal Post
231;syn;The Enigma of Amigara Fault
231;syn;Daikokubashira Hiwa
231;syn;Ashura no Dansou no Kai
231;jap;ギョ うごめく不気味
232;ang;Gakuen Alice
232;syn;Alice Academy
232;jap;学園アリス
233;syn;Kissxsis
233;jap;キス×シス
234;ang;Hikaru no Go
234;jap;ヒカルの碁
235;ang;Nausicaä of the Valley of the Wind
235;syn;Kaze no Tani no Nausicaa
235;jap;風の谷のナウシカ
236;syn;Koukin Otome x Amnesia
236;syn;Dusk Maiden of Amnesia
236;jap;黄昏乙女×アムネジア
237;ang;Kiss Him, Not Me
237;syn;Boys
237;syn;Please Kiss Him Instead of Me
237;syn;What will you do if I become popular?
237;jap;私がモテてどうすんだ
238;ang;Platinum End
238;jap;プラチナエンド
239;ang;Shugo Chara!
239;syn;Shugo Chara! Encore!
239;jap;しゅごキャラ！
242;ang;Oresama Teacher
242;syn;Ore-sama Teacher
242;jap;俺様ティーチャー
243;ang;Trinity Seven: The Seven Magicians
243;syn;Trinity Seven: Shichinin no Mashotsukai
243;syn;7-nin no Mahoutsukai
243;jap;トリニティセブン 7人の魔書使い
245;ang;Kakegurui: Compulsive Gambler
245;jap;賭ケグルイ
246;jap;ボクガール
247;ang;Love Stage!!
247;jap;LOVE STAGE!!
249;ang;Hana-Kimi: For You in Full Blossom
249;syn;HanaKimi
249;syn;The Thirsty Moon
249;syn;The Cage of Summer
249;syn;Natsu no Ori
249;syn;Kawaki no Tsuki
249;jap;花ざかりの君たちへ
251;syn;Suzumiya Haruhi no Yuuutsu
251;syn;The Melancholy of Haruhi Suzumiya
251;jap;涼宮ハルヒシリーズ
252;ang;Hayate The Combat Butler
252;jap;ハヤテのごとく！
254;syn;Unbalance x Unbalance
254;syn;UnbalanceX2
254;syn;UxU
254;jap;언밸런스×2
256;ang;The Rising of the Shield Hero
256;jap;盾の勇者の成り上がり
260;ang;Alice in the Country of Hearts
260;jap;ハートの国のアリス～Wonderful Wonder World～
261;ang;Magical Girl Apocalypse
261;syn;Mahou Shoujo OTE
261;syn;Magical Girl of the End
261;jap;魔法少女・オブ・ジ・エンド
262;ang;Inu x Boku SS
262;syn;Youko x Boku SS
262;syn;Inu x Boku Secret Service
262;jap;妖狐×僕SS
263;ang;Franken Fran
263;syn;Franken Furan
263;syn;Phase 20
263;jap;フランケン・ふらん
264;ang;K-On!
264;syn;Keion
264;jap;けいおん!
265;ang;D.N. Angel
265;syn;DN Angel
265;syn;DNAngel
265;syn;N is for Nishiki
265;syn;Protecting The Kanno House
265;syn;Demonen Igen
265;syn;Ou Magake Again
265;syn;OumagaAGAIN
265;jap;D・N・ANGEL
266;syn;Ribbon Road
266;jap;キャットストリート
269;ang;Real Account
269;jap;リアルアカウント
270;ang;Toradora!
270;syn;Tiger X Dragon
270;syn;Tora Dora
270;jap;とらドラ!
271;ang;My Monster Secret: "Actually, I am..."
271;syn;The Truth Is I Am...
271;jap;実は私は
272;jap;THE NEW GATE
273;jap;椿町ロンリープラネット
274;ang;Witch Buster
274;jap;위치헌터
275;ang;Princess Jellyfish
275;syn;Kuragehime Heroes
275;syn;Eiyuu Restuden
275;jap;海月姫
276;ang;Haven't You Heard? I'm Sakamoto
276;syn;I'm Sakamoto
276;syn;you know.
276;syn;Katahaba Hiroshi
276;syn;Broad Shoulders Hiroshi
276;jap;坂本ですが?
278;ang;Loveless
278;jap;LOVELESS
279;syn;Their Story
279;syn;Tamen De Gushi
279;syn;SQ: Cong Ni De Mingzi Kaishi
279;syn;SQ: Begin With Your Name!
279;jap;SQ从你的名字开始
280;ang;Twin Star Exorcists
280;syn;Sousei no Onmyouji: Adashino Benio-hen
280;jap;双星の陰陽師
281;ang;The Climber
281;jap;孤高の人
284;ang;Drifters
284;jap;ドリフターズ
285;ang;World Trigger
285;jap;ワールドトリガー
286;jap;我間乱 〜GAMARAN〜
289;ang;To Your Eternity
289;syn;To You
289;syn;the Immortal
289;jap;不滅のあなたへ
290;ang;Silver Spoon
290;jap;銀の匙 Silver Spoon
293;ang;Overlord
293;jap;オーバーロード
294;ang;Tomie
294;jap;富江
298;ang;The Kawai Complex Guide to Manors and Hostel
298;jap;僕らはみんな河合荘
300;ang;Spice & Wolf
300;syn;Spice and Wolf
300;jap;狼と香辛料
305;ang;The Irregular at Magic High School
305;jap;魔法科高校の劣等生
306;jap;ダーウィンズゲーム
309;ang;The Ghost in the Shell
309;jap;攻殻機動隊 THE GHOST IN THE SHELL
311;syn;Harisugawa in Mirror World
311;jap;鏡の国の針栖川
313;ang;Kingdom Hearts
313;syn;KH
313;syn;Disney Square Enix's Kingdom Hearts
313;syn;Kingdom Hearts Final Mix
313;syn;Kammatsu Yomikiri: Winnie the Pooh
313;jap;キングダムハーツ
316;ang;Hetalia Axis Powers
316;syn;Hetalia: Comic Diary
316;jap;ヘタリア Axis Powers
317;syn;Kami-sama no Iutoori
317;syn;As the God of Death Dictates
317;syn;Like God Says
317;jap;神さまの言うとおり
318;ang;Bokurano: Ours
318;syn;Bokura no
318;syn;Bokurano ~Mou Hitotsu no Bokurano~
318;jap;ぼくらの
320;ang;My Love Story!!
320;syn;Oremonogatari
320;jap;俺物語!!
321;ang;Boys Over Flowers
321;syn;HYD
321;syn;Boys Over Flowers: Jewelry Box
321;syn;End of the Century
321;jap;花より男子
322;ang;Durarara!!
322;syn;DRRR!!
322;jap;デュラララ!!
324;ang;I''s
324;syn;I"s
324;syn;I's
324;syn;Aizu
324;syn;Is
324;jap;アイズ
325;ang;The Tyrant Falls In Love
325;jap;恋する暴君
326;ang;Are You Alice?
326;jap;Are you Alice?
327;ang;Aishiteruze Baby
327;syn;I Love You
327;syn;Baby
327;jap;愛してるぜ ベイベ★★
328;ang;Dead Dead Demon's Dededede Destruction
328;syn;Honobono Fuufu
328;jap;デッドデッドデーモンズデデデデデストラクション
329;syn;Half and Half
329;jap;Half&half
333;ang;Tegami Bachi: Letter Bee
333;syn;Tegami Bachi to Dingo
333;jap;テガミバチ
337;ang;A Certain Magical Index
337;syn;To Aru Majutsu no Kinsho Mokuroku
337;jap;とある魔術の禁書目録
343;ang;Fushigi Yugi
343;syn;Mysterious Play
343;syn;Curious Play
343;jap;ふしぎ遊戯
347;ang;Demon Slayer: Kimetsu no Yaiba
347;syn;Blade of Demon Destruction
347;jap;鬼滅の刃
349;syn;Be Stronger! New Saga
349;jap;強くてニューサーガ
351;ang;Love at Fourteen
351;jap;14歳の恋
355;syn;Suicide Island
355;jap;自殺島
357;ang;Bloody Kiss
357;syn;Kyuuketsuki ni Onegai
357;syn;Please Mr. Vampire
357;syn;Angel Koiuta
357;syn;Angel Love Song
357;jap;ブラッディKISS
360;ang;FLCL
360;syn;Fooly Cooly
360;syn;Furi Kuri
360;jap;フリクリ
364;syn;Kashiwagi-san
364;syn;My Desk Neighbour
364;jap;となりの柏木さん
366;ang;Midnight Secretary
366;jap;ミッドナイト・セクレタリ
368;syn;Yan-Dere Kanojo
368;syn;Yandere Girlfriend
368;syn;Nekura Musume to Internet
368;syn;Miss Gloomy and the Internet
368;syn;Kinomiya Shoten: Kaiganji Ekimaeten
368;jap;ヤンデレ彼女
369;ang;Zatch Bell!
369;syn;Konjiki no Gash Bell!!
369;jap;金色のガッシュ!!
371;syn;Komi Naoshi Tanpenshuu
371;syn;Island
371;syn;Williams
371;syn;Personant
371;syn;Apple
371;syn;Nisekoi Pilot
371;syn;Nisekoi Prototype
371;syn;Koi no Kami-sama
371;jap;恋の神様 古味直志短編集
372;ang;My Wife Is Wagatsuma-san
372;jap;我妻さんは俺のヨメ
374;syn;A Child's Time
374;syn;Kojika
374;syn;Nymphet
374;jap;こどものじかん
377;ang;The Devil Is A Part-timer!
377;syn;Demon Lord at Work!
377;jap;はたらく魔王さま!
378;ang;Death March to the Parallel World Rhapsody
378;syn;DeathMa
378;jap;デスマーチからはじまる異世界狂想曲
379;ang;X
379;syn;X/1999
379;jap;X
381;syn;19-21
381;syn;Nineteen
381;syn;Twenty One
381;jap;열아홉스물하나
383;ang;Waiting for Spring
383;syn;We Are Waiting for Spring
383;syn;We hope for blooming
383;jap;春待つ僕ら
385;syn;Love Air
385;syn;Kaitou Police
385;syn;Mysterious Police Thief
385;jap;愛気
386;syn;Rocky Joe
386;syn;Tomorrow's Joe
386;jap;あしたのジョー
387;ang;Fire Punch
387;jap;ファイアパンチ
388;ang;Boarding School Juliet
388;syn;Kishukugakkou no Juliet
388;jap;寄宿学校のジュリエット
389;ang;Haganai: I don't have many friends
389;jap;僕は友達が少ない
391;ang;A Method to Make the Gentle World
391;syn;How to Make the World Gentle
391;jap;やさしいセカイのつくりかた
392;ang;Real Girl
392;syn;3D Kanojo
392;syn;3D Girlfriend
392;jap;3D彼女〈リアルガール〉
393;ang;Stepping on Roses
393;jap;裸足でバラを踏め
394;ang;Alice in Borderland
394;jap;今際の国のアリス
395;ang;Tokidoki
395;jap;刻どキ
396;syn;The Legend and the Hero
396;syn;Chronicles of the God's Order
396;syn;The Legend and the Hero
396;jap;封神記
397;syn;Death Note One Shot
397;syn;Death Note Special Chapter
397;jap;DEATH NOTE 特別編
399;syn;Change Hifumi
399;jap;チエンジひふみ
